transformation "inline_trivial"
transformation "eliminate_builtin"
transformation "inline_all"
transformation "eliminate_definition"
transformation "eliminate_inductive"
transformation "eliminate_algebraic"
transformation "eliminate_epsilon"
transformation "eliminate_if"
transformation "eliminate_let"
transformation "simplify_formula"
transformation "simplify_unknown_lsymbols"
transformation "simplify_trivial_quantification"
transformation "introduce_premises"
transformation "instantiate_predicate"
transformation "abstract_unknown_lsymbols"
